Modeling
…
#Creating a grid of 25 combinations of 5 different cost complexity and tree depth levels
tree_grid <- grid_regular(cost_complexity(),
                          tree_depth(),
                          levels = 5)

tree_fits <- tree_wkf |>
  tune_grid(resamples = diabetes_folds, #resampling of the 5 cross validation folds
            grid = tree_grid, #using the 25 combination grid from above
            metrics = metric_set(mn_log_loss)) #specifying log loss as the metric

tree_fits |> collect_metrics()

# A tibble: 25 × 8
   cost_complexity tree_depth .metric     .estimator  mean     n std_err .config
             <dbl>      <int> <chr>       <chr>      <dbl> <int>   <dbl> <chr>  
 1    0.0000000001          1 mn_log_loss binary     0.404     5 0.00217 Prepro…
 2    0.0000000178          1 mn_log_loss binary     0.404     5 0.00217 Prepro…
 3    0.00000316            1 mn_log_loss binary     0.404     5 0.00217 Prepro…
 4    0.000562              1 mn_log_loss binary     0.404     5 0.00217 Prepro…
 5    0.1                   1 mn_log_loss binary     0.404     5 0.00217 Prepro…
 6    0.0000000001          4 mn_log_loss binary     0.396     5 0.00711 Prepro…
 7    0.0000000178          4 mn_log_loss binary     0.396     5 0.00711 Prepro…
 8    0.00000316            4 mn_log_loss binary     0.396     5 0.00711 Prepro…
 9    0.000562              4 mn_log_loss binary     0.404     5 0.00217 Prepro…
10    0.1                   4 mn_log_loss binary     0.404     5 0.00217 Prepro…
# ℹ 15 more rows
…
